%YAML 1.1
%TAG !u! tag:unity3d.com,2011:
--- !u!1001 &2750183580858208502
PrefabInstance:
  m_ObjectHideFlags: 0
  serializedVersion: 2
  m_Modification:
    m_TransformParent: {fileID: 0}
    m_Modifications:
    - target: {fileID: 3075426801435806706, guid: ae1a8c8ecb4a7cd4282124de83744994, type: 3}
      propertyPath: m_RootOrder
      value: 0
      objectReference: {fileID: 0}
    - target: {fileID: 3075426801435806706, guid: ae1a8c8ecb4a7cd4282124de83744994, type: 3}
      propertyPath: m_LocalPosition.x
      value: 0
      objectReference: {fileID: 0}
    - target: {fileID: 3075426801435806706, guid: ae1a8c8ecb4a7cd4282124de83744994, type: 3}
      propertyPath: m_LocalPosition.y
      value: 0
      objectReference: {fileID: 0}
    - target: {fileID: 3075426801435806706, guid: ae1a8c8ecb4a7cd4282124de83744994, type: 3}
      propertyPath: m_LocalPosition.z
      value: 0
      objectReference: {fileID: 0}
    - target: {fileID: 3075426801435806706, guid: ae1a8c8ecb4a7cd4282124de83744994, type: 3}
      propertyPath: m_LocalRotation.w
      value: 1
      objectReference: {fileID: 0}
    - target: {fileID: 3075426801435806706, guid: ae1a8c8ecb4a7cd4282124de83744994, type: 3}
      propertyPath: m_LocalRotation.x
      value: 0
      objectReference: {fileID: 0}
    - target: {fileID: 3075426801435806706, guid: ae1a8c8ecb4a7cd4282124de83744994, type: 3}
      propertyPath: m_LocalRotation.y
      value: 0
      objectReference: {fileID: 0}
    - target: {fileID: 3075426801435806706, guid: ae1a8c8ecb4a7cd4282124de83744994, type: 3}
      propertyPath: m_LocalRotation.z
      value: 0
      objectReference: {fileID: 0}
    - target: {fileID: 3075426801435806706, guid: ae1a8c8ecb4a7cd4282124de83744994, type: 3}
      propertyPath: m_LocalEulerAnglesHint.x
      value: 0
      objectReference: {fileID: 0}
    - target: {fileID: 3075426801435806706, guid: ae1a8c8ecb4a7cd4282124de83744994, type: 3}
      propertyPath: m_LocalEulerAnglesHint.y
      value: 0
      objectReference: {fileID: 0}
    - target: {fileID: 3075426801435806706, guid: ae1a8c8ecb4a7cd4282124de83744994, type: 3}
      propertyPath: m_LocalEulerAnglesHint.z
      value: 0
      objectReference: {fileID: 0}
    - target: {fileID: 3075426801435806707, guid: ae1a8c8ecb4a7cd4282124de83744994, type: 3}
      propertyPath: m_Name
      value: Tile 2
      objectReference: {fileID: 0}
    - target: {fileID: 3075426801470890707, guid: ae1a8c8ecb4a7cd4282124de83744994, type: 3}
      propertyPath: m_Sprite
      value: 
      objectReference: {fileID: 4182637484160943449, guid: e161bc751f9de664e9be432efdd29bc2, type: 3}
    - target: {fileID: 3075426801470890707, guid: ae1a8c8ecb4a7cd4282124de83744994, type: 3}
      propertyPath: m_Color.b
      value: 1
      objectReference: {fileID: 0}
    - target: {fileID: 3075426801470890707, guid: ae1a8c8ecb4a7cd4282124de83744994, type: 3}
      propertyPath: m_Color.g
      value: 1
      objectReference: {fileID: 0}
    - target: {fileID: 3075426801470890707, guid: ae1a8c8ecb4a7cd4282124de83744994, type: 3}
      propertyPath: m_Color.r
      value: 1
      objectReference: {fileID: 0}
    - target: {fileID: 9054437034476495038, guid: ae1a8c8ecb4a7cd4282124de83744994, type: 3}
      propertyPath: <Id>k__BackingField
      value: 2
      objectReference: {fileID: 0}
    m_RemovedComponents: []
  m_SourcePrefab: {fileID: 100100000, guid: ae1a8c8ecb4a7cd4282124de83744994, type: 3}
